%YAML 1.1
%TAG !u! tag:unity3d.com,2011:
--- !u!78 &1
TagManager:
  serializedVersion: 2
  tags:
  - Player
  - Fruit
  - Soda
  - Exit
  layers:
  - Default
  - TransparentFX
  - Ignore Raycast
  - 
  - Water
  - UI
  - 
  - 
  - Collision Layer
  - 
  - 
  - 
  - 
  - 
  - 
  - 
  - 
  - 
  - 
  - 
  - 
  - 
  - 
  - 
  - 
  - 
  - 
  - 
  - 
  - 
  - 
  - 
  m_SortingLayers:
  - name: Default
    uniqueID: 0
    locked: 0
  - name: Floor
    uniqueID: 2662144911
    locked: 0
  - name: Obstacles
    uniqueID: 4237032339
    locked: 0
  - name: Coins
    uniqueID: 1555862243
    locked: 0
  - name: Food
    uniqueID: 251056001
    locked: 0
  - name: Characters
    uniqueID: 1375085033
    locked: 0
